<?xml version="1.0" encoding="UTF-8"?>
<glyph name="X" format="1">
  <advance width="1000"/>
  <unicode hex="0058"/>
  <outline>
    <contour>
      <point x="0" y="800" type="move"/>
      <point x="800.557" y="-0.556641" type="line"/>
      <point x="400.278" y="399.722" type="line"/>
      <point x="800.557" y="800" type="line"/>
      <point x="0" y="-0.556641" type="line"/>
    </contour>
  </outline>
</glyph>
